candidate_name,candidate_address
Pham Duc Duong,60429-350
Suzy Spiers,52747-902
Saidee Dixon,43063-188
Laryssa Ruthven,67718-941
Luci Tomkin,61442-117
Chick Velasquez,0536-3597
Ange Lynch,54868-0117
Becki Ostrich,10096-0288
Brewster Foxall,51672-1305
Laverna Fishbourn,37000-475
Jenilee Knellen,76485-1008
Romona Kilsby,98132-670
Ynes Solland,0054-0382
Tobey Gorrie,51655-584
Vinson Wyllie,49288-0279
Ardine Enriques,58411-182
Weylin Treanor,51138-049
Corenda Narup,10191-1842
Kathie Heiton,51672-1274
Christian Bedinham,65841-690
Marie-ann Sebborn,42507-187
Aurora Blare,49035-022
Annalise Belsey,61543-7237
Suzie Wogden,35356-871
Farley Lehr,42507-102
Jewell Wheater,58809-999
Morten Sheather,0069-4545
Eugine Toppin,65862-306
Niki Stollery,0268-0005
Sanford Thomel,36987-1470
Gracia Sproat,44946-1020
Godfry Erie,64696-1968
Elwira Voelker,0378-8688
Tilly Beneyto,65044-6691
Adoree Prebble,41616-760
Rora Clawson,68703-072
Keene Balsdon,63739-543
Darrel Rupel,68737-232
Elke Millis,53033-002
Logan Ralling,23155-214
Darbie Fearn,43598-165
Leena Glowacki,0781-3223
Heloise Chinn,42507-702
Alvin Moralis,13107-073
Carmen Cescot,49483-334
Skipper De Mars,63354-093
Pru Habercham,49035-946
Emmott Garlinge,0904-0314
Mirabella Grabban,41520-541
Berkley Scrange,57664-106
Van Fallow,59762-2332
Khalil Salmons,55289-935
Dorthy Ochiltree,59779-873
Ginger Tregiddo,68084-313
Ev Breitler,0409-7793
Jarib Beasley,0409-7109
Waldon Naylor,52512-162
Ike Berthel,0143-9994
Dagmar Gandey,65954-044
Garfield Sterland,59762-1415
Saxe Cearley,55282-3001
Moe Allberry,48951-9027
Joye Iori,13537-252
Ernesta Plom,47593-469
Gerrilee Claeskens,50845-0023
Bryn Murdie,0641-6104
Gran Letts,43742-0515
Kamilah Thomkins,0006-0207
Tabbie Accum,43074-116
Bartholomew Hellikes,49884-257
Bobby Shurmore,16252-590
Rodd Allibone,37205-302
Cooper Reedshaw,59726-360
Cassy Abrahart,54868-2996
Correy McGawn,10481-3005
Mikey Blackett,54868-6139
Karalee Brodeur,41190-425
Deeanne Garthshore,53808-0918
Ree Monkton,53489-149
Michel Gripton,60505-0253
Bobbee Rawlison,0179-0054
Anette Dudill,50297-0001
Hervey Calf,65597-117
Lombard Browett,57520-1005
Bonni Crooks,0338-0117
Orelee Barrott,68016-111
Yancy Hauch,49349-872
Verney Greenhill,42023-145
Joni Bustin,43063-139
Maurizia Adamides,60681-2112
Liza Reast,12634-779
Brita Screase,58411-146
Erinna de Chastelain,0378-6991
Yank Morrant,61703-408
Almira Charlton,41520-302
Dedie MacCaughey,64942-1307
Padraig McClure,43068-101
Grove Inkles,65162-642
Fanni Petheridge,49288-0383
Hallsy Mytton,76017-200
Silvie Gownge,52685-347
Thaxter Zanetti,51346-223
Kristina Grcic,0065-0418
Hagan Bolter,54575-940
Frederick Matschek,50580-679
Dominique Fishbourne,42507-620
Selma Matsell,0113-0656
Berkeley Spino,49288-0147
Augustine Hulme,0496-0716
Neda Monson,36987-1374
Katharine Sustins,49738-201
Sybilla Elcocks,52959-803
Reggie Filintsev,10812-961
Tirrell Bernardi,68084-512
Holly Sundin,36800-076
Dex Jouandet,0498-7500
Tessie Beiderbecke,54868-5724
Rurik Harroway,0268-6533
Geordie Shyram,36987-2638
Sherilyn Cridlin,55714-2334
Clemmy Iacovini,16590-207
Agace Mobberley,43419-903
Carine Dixcey,21695-704
Pepito Ruse,0270-1316
Wayne Hardington,68645-400
Bella Govan,41250-472
Carlyle Ponting,13537-530
Lotta Robertot,55910-950
Rosaline Shovelin,52124-0114
Meier Ferdinand,0143-9962
Jemima Crummay,43063-425
Selby Pitbladdo,63323-282
Delbert Ochterlonie,52389-263
Elysia Akrigg,68016-156
Wash Alberti,60760-301
Kayley Priestley,58238-225
Hilary Gilloran,51672-4095
Prissie Fried,45963-634
Trevor Dachey,60429-280
Shaylyn Rutigliano,42254-250
Adelheid O'Keaveny,68387-502
Othelia Skoughman,55154-1277
Ciro Timbs,59779-108
Michelle Beddin,61715-109
Danette O'Halloran,51079-174
Louella Reece,54569-5195
Minerva Kubas,68016-018
Nicolle Kornyakov,55154-1813
Dagmar Scarlan,10191-1569
Blake Peacham,59762-5093
Jody Ralton,0093-0320
Marlow Spikeings,49348-715
Perri Farquarson,66854-024
Robers Broomfield,13668-021
Mella Diaper,55312-020
Melosa Keune,42367-202
Flo Spellard,42507-620
Modestine Shayler,0268-0897
Briney Slade,10544-003
Franz Oboy,48951-5065
Conant Lechmere,0781-1182
Blinnie Virgoe,0378-1113
Zandra Deer,59647-243
Georg Eul,13537-545
Eward Lanmeid,50383-823
Kristoffer Zincke,52685-302
Harlin Janicek,0406-8515
Ladonna Freeborne,10812-421
Brnaby Garvin,62440-279
Nisse Bagot,49909-005
Goldarina Smalman,53808-0273
Osbourn Downes,10742-8144
Sutton Handmore,0591-5716
Kristofer Applegate,63323-459
Fields Andreassen,33261-628
Rubina Guice,37808-470
Rolando Trewman,49999-818
Audy Beckinsall,17478-200
Dahlia Dignum,46122-031
Eachelle Godber,51079-865
Dedra Ramshaw,16714-582
Antonio Handsheart,63941-307
Zach Swigger,61016-0001
Clim Baudassi,42291-718
Cale Scolli,54575-186
Tanny Will,68391-267
Cyrillus Wolstencroft,60505-3952
Ade Bocock,63777-222
Raffarty Aizic,36987-2323
Thomas Pales,68084-177
Gallard O'Corrigane,63629-3324
Mady Stuckley,67457-485
Shae Lamcken,64483-003
Lamont Well,55319-480
Abbey Moncaster,49349-478
Sophronia Charter,68084-183
Claudine Danher,64980-181
Bordie Van Daalen,52174-001
Uriah Smeal,69096-0100
Zia Ludwikiewicz,52125-404
Angela Ruckman,62670-3649
Padraig Bines,16590-885
Jens Stiff,41520-496
Indira Berard,24338-122
Nan Curbishley,65373-401
Atalanta Velasquez,47584-003
Bernardo Lambrechts,43269-841
Bartram Oppie,52862-020
Cosette Axelbee,49999-343
Marquita Bosma,37205-358
Benedicta Duerden,0054-0223
Helena Killick,13925-171
Nissie Bellinger,0781-5817
Eartha Rosser,13537-464
Desiree De Angelo,36800-578
Colas Dericot,54136-030
Jehanna Lacroux,63629-2638
Nissie Bonifacio,63691-013
Inessa MacRonald,61481-0590
Lothario Gleadle,48951-9041
Albina Diamond,64616-101
Felike Muckle,49825-126
Lida Wilne,52125-765
Kasper Berkelay,0268-1275
Bearnard Breede,76388-713
Mick Crimp,61722-187
Gayler Okroy,62175-106
Sybille Kaming,54868-5511
Mariel McCardle,54868-1971
Isiahi Jeacocke,0527-1326
Jaquenette Bleything,0091-2489
Braden Duthy,63304-540
Maurie Robson,49288-0789
Emilee Minchin,42549-569
Tessa Massie,0699-5725
Gerik Erbain,49614-172
Judie Humpherston,49643-388
Dagmar Brunt,22431-128
Chrisse Beebee,57344-001
Beale Bratcher,23155-137
Rey Shapter,61919-989
Somerset Peatheyjohns,27495-008
Padriac Sergant,46123-016
Kass Lindwasser,60429-364
Nikos Garie,0015-3080
Milzie Savory,21130-226
Emeline Esposita,63629-4639
Dillie Innocenti,0069-1441
Tami Swafford,76138-106
Read Tustin,63354-350
Filia Sibille,0024-5840
Collete McGillivray,49349-243
Jessa Bradnick,49281-514
Kerr Bardell,43063-468
Casey Rostron,50804-076
Chet Britch,76181-001
Billie Benazet,0074-4637
Kiah Deboick,48951-3159
Ayn Wilcox,24488-009
Juan Dory,32909-804
Stephannie Last,57520-0460
Skylar Yakhin,52584-476
Marty Lednor,44911-0086
Ardenia Mattingley,10006-011
Sasha Ditchfield,64764-541
Kassie McConnulty,51918-1002
Ezekiel Haynes,45861-107
Maison Coupar,63717-901
Reuven Helwig,13811-662
Reg Spencook,65044-5137
Vasily McCarter,0378-6124
Belva Shorbrook,42961-124
Mindy Sebire,36987-2341
Ruby Drains,68745-1055
Webb Dring,58411-130
Israel Bisset,63851-612
Tania Kebell,68391-915
Merle Godbehere,49825-114
Myca Blazek,0145-3817
Penrod Trinke,33261-020
My Withur,53329-083
Andrus Josifovic,58232-0531
Vernen Costa,36800-463
Ranique Loache,50436-6104
Vicki Lantoph,49738-557
Willow Chritchley,47335-937
Rozele Dunston,36800-955
Jacklyn Flag,57955-0001
Haleigh Emmanueli,37012-370
Vonnie Trevallion,53808-0692
Erick Lintott,57237-020
Andrey Quimby,52605-114
Link Gosneye,49999-778
Baryram Ceschi,36987-1430
Mateo Barrowcliff,60505-0081
Elvera Bollin,24839-343
Ammamaria Wadie,51346-110
Tamiko Hatherleigh,41520-550
Cordie McAline,60760-410
Sallyann Dumini,13733-050
Huntington Tosh,0440-1771
Emmalyn Babbs,54973-2907
Rodger Eaglestone,10544-259
Grete Flukes,49999-246
Lanni Stillman,55714-2273
Daryl Kennford,50268-084
Esmeralda Jacobsson,52125-531
Lorene Castillon,41520-445
Bendite MacKintosh,24338-120
Arie Blei,0206-4100
Early Towson,0641-6068
Marsiella Quinsee,61062-0007
Quinton Caro,61601-1176
Kristo MacBrearty,49348-543
Pammi Closs,64735-080
Esta Rawll,24477-040
Virgina Eardley,49281-250
Kissie Mannie,65044-3452
Heinrick Gilmore,65044-1747
Gwenore Woolaghan,66993-875
Taber Rimmer,62713-808
Killy Toolan,47781-266
Efrem Stinton,36987-1275
Margaux Jellings,55316-599
Rex Packwood,43269-820
Wittie Baggs,59572-631
Gallard Bierman,55154-9659
Eb Benning,0904-7718
Mickie Tomaszczyk,13734-133
Sibilla McPaike,59229-005
Florie Arger,0078-0454
Willy Henker,54575-443
Briny Caldeyroux,60512-6511
Selby Sacase,54868-5527
Way Thaim,76015-300
Carlyle Creeber,0363-0542
Audrie Larmet,30014-016
Mommy Swithenby,36987-3266
Ann Pafford,42507-645
Bobbie Borkin,63739-494
Tomas Allans,57627-137
Sorcha Jewster,65044-2635
Roxy Grosvener,47682-008
Ellen Fishpoole,55289-963
Orella Jurewicz,42192-708
Rosette Huxter,52105-070
Lloyd Sheepy,68382-443
Shirl Borrow,76282-250
Timmie Cruddace,53125-773
Doroteya Fibbings,48951-8162
Brietta Mc Queen,66975-357
Amalee Scneider,67777-246
Neile Symmers,0699-7081
Idalina Aspland,49430-014
Morly Finn,68776-1001
Ulick Tiffin,0143-9960
Dacy Edler,55154-5178
Faber Sharplin,62175-571
Clara Gurry,36987-2629
Agnella McKinty,36987-1517
Reinaldos Blissitt,67751-052
Helaine Voisey,51531-8977
Annis Laingmaid,60505-2552
Becki Disbrey,49967-005
Kurtis Foort,36987-2751
Keenan Castanyer,13537-044
Sherlocke Avey,48951-1196
Bernardine Pugsley,35000-604
Candi Hallows,67544-026
Abbye Tapper,50988-179
Germaine Walling,42507-298
Carolyne Niblett,63629-3764
Kelly Cripps,0121-4803
Hubert De Malchar,59494-2001
Cletis Rays,66467-9760
Morena Ashfield,30142-080
Rebecca Jurasz,55154-5090
Nessie Caruth,0591-3760
Fran Sobey,0005-2500
Janelle Petranek,36987-2816
Jason Hansell,59726-225
Mitchell Nazair,49349-768
Lacee Keast,51334-946
Sabina Pordall,41167-0470
Rica Threader,55253-601
Brietta Nowell,61601-1195
Karalee Gawkroge,54575-169
Emmett Fantini,68382-763
Kelly Porcher,53808-0399
Hillel Cruddace,51706-113
Felix Metheringham,36800-897
Tamera Langshaw,10893-520
Gabriel Pollastrino,0924-7110
Malvina Tembridge,55154-4325
Sherm Filyakov,49035-384
Mata Buddle,65044-2297
Miof mela Cheake,11523-7250
Berri Paulig,41250-165
Jilly Mackstead,66490-650
Smitty Spykins,51389-250
Issi Gilmartin,59088-829
Margette Danforth,66579-0065
Manolo Bartrap,11410-411
Konstanze Cowans,57520-0708
Sallyann Cleeves,61139-421
Berkley Petris,55714-4452
Marja McElroy,16571-411
Lou Cramphorn,42357-001
Lexine Howe,21749-364
Bone Beran,43063-379
Tootsie Fairfoul,49999-799
Saw Beldum,33261-413
Minnaminnie Mallinson,0179-0088
Dugald Dainton,0245-1071
Carey Cockett,49404-100
Hamilton Briars,0268-6616
Cilka Dillistone,54868-2462
Gilberta Hayzer,64720-215
Maisey Athridge,0179-0159
Gerri Van Waadenburg,62191-009
Abeu Avis,49035-918
Laughton Heimes,62750-057
Carree Scawton,65841-041
Corene Nevison,67046-282
Reggi Kurtis,54868-4126
Maura Twoohy,65517-0012
Rodina Espinet,52664-001
Rodi Master,63874-230
Hewet Mailes,60429-299
Batholomew Braunthal,0268-1520
Charis Piola,43063-095
Tamarra Annetts,47335-804
Otes Hallifax,65162-574
Torrance Heller,0378-0048
Aurthur Guppey,76214-039
Herbie Riches,61703-344
Frans Barette,68084-772
Livvy Rolls,0597-0140
Windy Brilleman,0409-3379
Dell Reichelt,62175-486
Roze Graves,63323-269
Eugine Millett,0268-0850
Joanna Barrass,50436-4693
Lonni MacGillivrie,75862-012
Jeane Kays,43742-0309
Annamarie Speeding,68745-1042
Hube Godier,54575-220
Nonah Dargan,52125-408
Aura Blaxland,0078-0539
Sherill Elgar,49981-005
Coralie McAleese,63629-5247
Mathe Gilyatt,62756-712
Elia Rigmond,16714-621
Cornell Zack,11673-250
Janenna Stileman,53808-0893
Tades Rotherham,59667-0018
Guillema Lickorish,53389-035
Hadleigh Corben,0363-0612
Roberto Dowgill,0234-0587
Niccolo Spiring,68428-069
David Manntschke,50436-6301
Alene Bulmer,68084-057
Nehemiah Wheway,0023-4491
Gardiner Lowndsborough,60913-008
Cheryl Kubicka,68788-9076
Aloin Wardell,52533-001
Suki Galbreath,55154-1339
Davidde Sheal,52642-003
Deane Bullivent,57910-401
Tremayne Loyley,60215-411
Felice Bewsy,76084-1001
Kimberlee Erbain,59148-021
Kahaleel Spilsburie,50436-0119
Alvina Kennicott,16252-570
Marion Meenan,36800-215
Cherianne Bromhead,55714-4486
Colver Ivanovic,59779-149
Terrye Gregoretti,55154-1385
Micheil Habble,68828-079
Tiertza Flawith,55154-5071
Russell Mahood,61312-001
Alis Middlemass,42507-014
Donetta Lahive,10544-116
Merlina Larciere,0093-0294
Myca Woodroffe,49884-304
Gladys Docharty,98132-305
Beryle Simmers,51079-475
Crawford Christophersen,64679-973
Maximilian Geyton,55319-110
Meryl Pothergill,66129-035
Jackie Lambird,60512-6446
Fonsie Smallpeace,59039-001
Quent Edlyn,0363-0917
Ettie Gouch,63148-253
Amerigo Smalridge,48951-8126
Auroora Houten,76173-1100
Emmeline Bullerwell,0283-0569
Jonathan Chestnutt,55711-064
Cass Fosse,42291-301
Red Woan,36987-1749
Farlie Wooster,59970-042
Bernie Amberger,34690-5001
Olivie Vieyra,60429-183
Denys Emsden,52125-712
Yalonda Toombes,47682-479
Idalina Bartolini,36987-2636
Alida Gilkes,0591-2369
Jefferey Grinnikov,0273-0357
Carlin Dudeney,76466-500
Teressa Merriman,64942-1237
Elayne Martinho,63629-3200
Rebekkah Midgley,52125-732
Cinnamon Rocks,42291-623
Jeanette Sheivels,0591-2224
Kat Evreux,0409-7906
Major Cromarty,37000-785
Ingrid Beasant,68774-401
Franciska Folini,63539-422
Nicolis Behninck,48951-8168
Donavon Studders,57955-5062
Henrie Kleint,11822-8011
Alard Warner,61715-122
Ange Nicklinson,17478-817
Constantin Harmour,0781-5937
Lavinia Breese,75863-2001
Eugine Wenden,48951-7109
Rosetta O'Dyvoy,36987-3313
Marley Badsey,41520-332
Jarrod Farlam,76271-001
Kimmi Richly,54505-329
Jean Bristoe,62620-2001
Brennan Skeels,60681-5302
Marwin Jewel,48951-7014
Sophie Jesteco,21130-294
Rollie Asquith,21695-304
Dania McSperron,51285-063
Allayne Bruin,59726-810
Andrea Blaskett,0409-1467
Berne Watkiss,55628-9204
Pablo Reburn,30142-121
Marlin Ficken,37205-429
Martynne Suddards,49349-548
Andre Mapam,52584-977
Sharia Bankes,0143-9967
Talyah Leward,58118-0341
Joane Volke,48951-9159
Dougy Cardwell,53145-303
Margeaux Huby,55301-011
Marje Courtes,50563-185
Geoffrey Gidley,62296-0051
Temple Gunton,60505-3808
Jenna Calvard,42291-643
Arlinda Cyster,36987-1086
Pepi Aucourte,68258-7067
Ole Munnery,0019-9883
Michelina Covell,0378-7287
Ferdie Scotchforth,55714-2260
Christie Morgan,55154-0454
Emmery Ingry,63824-304
Correna Hammerberger,68642-783
Marissa Bonfield,57520-0611
Billi Aries,11822-3303
Marietta Lonsdale,58118-0012
Roseanne Morson,41163-544
Cyrillus Tanser,50346-001
Poppy Matzkaitis,52268-147
Sybila People,0641-6045
Michael Arblaster,0069-1340
Lalo Grigsby,23731-6030
Eachelle Arguile,46362-002
Kettie Willan,13537-539
Bryon Cana,57520-0131
Crista Caplen,62839-1455
Misha Leale,66467-2560
Ichabod Frowd,55301-063
Roseanne Oats,0378-7096
Port Brave,0603-4023
Harold Dilke,50438-210
Bobbe Meak,55289-969
Dorise Sarl,45264-006
Brenn McDade,23710-901
Adela Studd,0409-6139
Francisco Skentelbery,54575-241
Minor D'Aubney,59564-251
Margalo Jiroutek,36987-3242
Adrianne Rowlinson,11673-302
Cathie Brodhead,51138-067
Betteann Murford,68405-198
Berkeley Bisset,65601-751
Stefa Cownden,0463-6050
Sterne Kirwood,46122-169
Fernanda Arr,43319-030
Mordecai Lohan,51824-600
Frank Gemelli,41520-227
Raffaello Duckerin,63629-4695
Trixy Pecey,0096-0709
Gabi Wyburn,62713-914
Wolfy Whetson,13734-027
Ynez Bril,0527-1392
Odie Edling,51079-510
Ebony Worlock,59779-206
Neysa Leist,65862-309
Stephan Dudleston,43353-072
John Ivermee,0268-0054
Fancie Reddan,54868-5261
Gerardo Bass,0378-1711
Robert Hayne,49281-650
Naoma Griswood,68682-355
Gillian Fetherston,11822-9860
Sacha Brookton,10202-130
Fayre Ponton,24385-903
Marylin Comusso,0168-0099
Franciska Stubley,49999-767
Zilvia Watmore,60846-900
Shantee Grigson,0228-2076
Pincas Scorthorne,64896-691
Wallas Ivain,54868-5043
Bili Varga,59762-3719
Tomaso Cominetti,33992-4951
Geoffrey Corgenvin,76472-1127
Fidelia Chimenti,0615-1536
Ammamaria De Atta,65044-0537
Darleen Mathonnet,68745-1035
Kimberley Gibbetts,37012-224
Benoit Curmi,44911-0004
Willamina Franzettoini,60505-0848
Jilleen Tysall,68745-2026
Stu Peddowe,50600-002
Roshelle Gabey,52164-1105
Herman Offiler,46123-018
Errol Timmermann,36987-1636
Sanderson Robard,66382-003
Liza Langshaw,43857-0211
Taddeo Wyatt,49884-534
Demetri St. Queintain,54868-5604
Seward Dikes,52125-386
Roddie Hurnell,51346-032
Dorothy Kacheller,63323-664
Jarvis Tansley,11559-967
Paulette Hartill,65044-6580
Jonis Peltzer,49884-020
Irving Pothecary,17478-238
Elwood Furmedge,57237-049
Marguerite Everly,68391-479
Alexa Muncer,55154-8285
Trevar Luquet,36987-2513
Albertina O'Hederscoll,60429-273
Marlow Order,43353-732
Steve Churly,54868-0049
Albert Goldspink,51645-269
Amanda Rouse,63824-260
Jacob Golledge,11084-071
Mallorie Dovinson,55312-281
Georgie Torricina,24385-060
Clare Combe,0456-0460
Ollie Sante,65044-2621
Jacob Semon,43749-440
Angie Jackalin,0268-6300
Kimberly Mardall,42507-431
Gussy Sandes,23104-5010
Eleanora Rudeyeard,60505-6081
Florence Bonass,55154-5431
Artur Bellam,57520-0328
Sandy Yellep,49348-307
Baillie McPhelimy,50114-1032
Mariellen Wakenshaw,17630-2041
Peterus Shillinglaw,16590-285
Darya Osorio,54458-932
Terrill Pennington,39822-1055
Wallace Aloigi,64725-0319
Jonis Scimoni,55312-947
Suellen Collecott,54838-571
Traci Netherclift,59535-7701
Kathryn Sabate,0268-0053
Colby Stretton,0179-1445
Verla Hallam,21695-378
Zaria Venus,37205-724
Karleen Edge,0781-7171
Ellissa Gehricke,36800-340
Artair Stockill,51270-118
Franklyn Camoys,54575-113
De witt Skeech,42213-375
Waldemar Broke,66184-529
Mortimer Kale,64942-1243
Marney Tolson,60505-2638
Billie Shinefield,51477-002
Cullie Cutten,68786-224
Bert Abrahmson,55648-906
Jodi Brice,35356-825
Aldric Scriver,68382-059
Augusta Haly,59579-008
Carlo Scraney,63941-341
Loydie Greggor,36987-2936
Krissy Massingham,24236-412
Riki Kellar,65862-604
Devina Sabathier,65862-566
Alf Hatchette,0173-0844
Rene Cale,60429-235
Tilly Sells,0527-1376
Jareb Dinsey,55154-9370
Reyna Odegaard,0268-0821
Markus Thorne,14550-511
Rosemarie Huonic,58118-9918
Aldo Romanetti,64893-700
Ashlee Gentiry,60760-279
Judah Canner,60429-743
Ardeen Horbart,57955-0055
Nanci Deniso,63739-366
Annecorinne Claussen,37000-381
Anet Cheson,0703-3015
Bale Sawnwy,57691-093
Gilbertine Fawlo,54202-001
Lurline Merman,63323-311
Moll Edington,10893-335
Jody Fenty,0378-8008
Wynny Henrionot,51270-119
Scottie McGibbon,36800-700
Marleah Cardow,57955-1500
Agathe Oddey,53499-7233
Tome Pedrocchi,49348-233
Giovanni Moulsdall,0781-3110
Ted O'Breen,0703-5233
Emalia Mac Giany,57955-5002
Jacynth Gjerde,0904-5554
Alwyn Ware,52685-315
Crin Toffalo,55714-4468
Arleyne Vanyashin,0245-0012
Shandy Drewe,0179-0068
Zorina Cumberbatch,10812-203
Kendricks Tunnacliffe,61957-1045
Hamlin Gilfether,68429-201
Fernandina McDyer,49884-670
Nicolis Tulley,0591-5883
Hortense Tremolieres,11523-0430
Bartolemo Battell,50963-809
Nettle Heal,24385-372
Joan Moncey,0228-3154
Walt Hellis,68151-1019
Roxi Letherbury,60429-175
Cheston Daintree,0781-3052
Etty Order,16590-283
Cristi Ormerod,42507-998
Hinze Dreher,49349-162
Raphaela Vickress,49430-014
Teador Overel,48951-2063
Corbie McTerrelly,43319-050
Elaina Sommerland,36987-1996
Osbert Freathy,51285-082
Fay Spoole,55714-4431
Correy Featonby,68258-5973
Sherline Funnell,36987-1331
Nonie Dingivan,0378-9681
Gerick Lark,50436-3444
Granny Chapell,0378-7185
Paco Iglesiaz,24385-535
Elvira Boyet,42808-202
Dov Renneke,59762-1520
Rodi Hechlin,43063-279
Raviv Tarbatt,30142-236
Cornelle Keasy,42908-071
Fairfax Davidson,55319-535
Robinet Nore,0031-8731
Boyce Sweedy,52685-310
Darleen Killshaw,11410-106
Nettle Vasyukhichev,0186-1070
Waylen Heaphy,0703-4714
Demeter Hrycek,52125-167
Merill Moynham,24913-2234
Corby Elliott,76485-1012
Jen Muat,13668-268
Farleigh Garron,0430-0420
Peder Santore,0245-0042
Thorpe Mallison,54868-6343
Melania Traylen,29500-9033
Ariana Keeping,51191-3015
Jarib Kittoe,49817-0075
Reeta McWhannel,66988-100
Lucinda Abson,17478-547
Larina Scardifield,0093-7154
Olivie Scurfield,49967-206
Zedekiah Medmore,76354-005
Rozanne Imlaw,66336-560
Meara Houlahan,65162-194
Eugene Halcro,63629-4148
Roana Crutchley,48951-1185
Sheff Keer,52125-019
Juanita Bumphrey,65862-707
Babs Harriagn,15127-549
Bridgette Matous,63874-322
Gualterio Kurten,63629-3345
Cayla Belchamp,37205-530
Filippo Ughelli,0052-0450
Kathleen Padula,0409-2265
Mary Matiasek,61734-040
Lana Davis,0310-0213
Monty Peers,40046-0037
Sheffield Haxell,21695-500
Hamish Gridley,41190-384
Murdock Bartosch,49371-028
Artemus Follitt,42947-630
Hymie Moloney,58118-1393
Seana Richen,43269-737
Quinlan Pletts,44662-3111
Aeriel Cominoli,58118-3339
Cash Lambrook,11410-800
Lyndell Thorington,59365-6064
Germaine Hawking,68084-538
Ody Hymor,0703-4402
Eddie Robertot,0615-5592
Arlin Gwilym,0904-6105
Jerrie Clougher,68209-843
Annetta Caudrey,21695-401
Freddy Duckers,66353-100
Dione Wenderoth,63187-093
Mathilde Salack,43419-323
Cleavland Tern,48951-1045
Daryl Guerra,52343-022
Ashely Akenhead,0781-5186
Skipp Pulford,16590-740
Devora Kivelle,69197-001
Rozelle Hillhouse,50988-197
Robinet Monkley,43547-274
Weylin Alldread,55154-0368
Niel O'Leary,36987-1581
Adeline Cardis,49999-324
Junina Otteridge,21695-208
Yorgos Frounks,0078-0331
Archibold Bengall,57691-567
Lyn Gutcher,0409-0183
Fancy Bendan,51143-693
Wye Mulvenna,76485-1022
Gabriello Darrington,61062-0005
Anastasia Aronstein,43742-0018
Heriberto McGing,52125-711
Brandyn Kunat,66902-000
Worthington Wyper,54868-5829
Alphard Marusik,53808-0646
Annadiane Drury,54340-764
Julie Reinhard,51079-460
Kassey Spellicy,51224-301
Didi Dempster,58118-2277
Anica Daens,21695-918
Ninetta Mabbett,42254-064
Consalve Pash,62839-0803
Adriano Bygrove,10819-5002
Goldarina Girardoni,49288-0298
Ingunna Grcic,54569-1051
Joey Kimmitt,63550-851
Sarge Stuckley,36800-478
Kym O'Dwyer,24090-497
Aurelea Bendel,59762-2002
Amery Ferrarin,0615-7717
Jessie Margarson,36800-951
Marianna Mitchelmore,43742-0086
Royall Gocke,62802-112
Christabel Sent,60505-2542
Blake Gianulli,76237-113
Darell Trosdall,63629-5257
Bronnie Bathurst,58029-223
Hollis Petrashov,0113-0291
Luelle Nowaczyk,45149-014
James Dyment,56062-003
Roana Haggas,31722-201
Rex Spurdens,61314-631
Corena Edworthye,57520-0318
Odie Ickovitz,49349-546
Teodorico Severwright,0025-1011
Linus Danilyak,0904-5377
Mariya McFadyen,41163-294
Melessa Vanyatin,49643-369
Dore Meatcher,11564-002
Wernher Goundrill,55154-1682
Alex Sandwich,68016-216
Jecho Padula,42507-567
Sybilla Jerisch,68988-110
Enos Coleson,55648-152
Val Shorto,52183-373
Mendy Hartzog,49349-155
Christel Pickworth,0463-8500
Selina Furzer,54575-196
Arvin Abthorpe,50682-527
Conrado Robbe,30142-318
Maddy Lowensohn,0409-3374
Kare Pickworth,55154-5687
Fredrick Biford,59779-308
Alysia Windridge,0409-3507
Joby Sharper,68001-243
Avrom Fischer,35192-007
Ritchie Skitch,64159-6346
Maud Joesbury,62713-918
Albie Spiteri,36987-1712
Beryl Jossum,49698-300
Aurilia Czadla,54868-4155
Rhoda Bleakley,54868-1798
Lissie Hayth,76354-003
Roma Caisley,63691-013
Alexa Alexandrou,60512-6780
Noel Ferneyhough,48095-390
Sigfried Thunderchief,11429-1002
Salvidor Daunay,0338-0671
Bren Attenborough,64616-104
Debby Scudder,0409-3814
Lazar Dilloway,65862-617
Bernarr Ligerton,49288-0129
Hermann Roubert,21695-253
Tye Brandli,0941-0430
Dory Hinksen,45802-806
Douglas Filippucci,0904-5553
Casar Crollman,65044-2099
Clarine Storks,50845-0189
Damiano Barette,50458-395
Axel Headford,64720-141
Clair Penticost,65044-5221
Bree Lightwing,57520-0319
Ailis Simek,68428-739
Vanya Aarons,65044-3714
Rupert Wehnerr,0264-8612
Benedict Hydes,53014-532
Benetta Bockin,36987-1883
Liam Popeley,49726-012
Bevvy Van der Kruijs,57707-058
Bear Hughson,10304-463
Trenton Timeby,0002-8149
Shannan Ledson,47335-906
Sig Cayette,41163-600
Elie Wardrop,20276-200
Aldridge Aird,47682-301
Alyse Rikard,51209-004
Lora Brader,13537-027
Garrik Shinton,63629-4843
Alethea Brogan,64942-1230
Angie Parades,61010-1250
Terese Tarbatt,21695-071
Manolo Tunkin,60429-783
Baxy Blenkin,49884-465
Aldin Frampton,53746-140
Lombard Sifflett,0591-2317
Lorelle Atkin,67510-0153
Leland Lemmertz,16590-023
Ara Holtham,0615-7593
Lucio Creedland,55312-141
Koenraad Cary,37808-843
Mirilla Mattiato,0219-4103
Paloma Wehnerr,63304-964
John Sutherley,76179-025
Margarette Bernardeau,49999-095
Lemmy Gerish,0904-5666
Neala Brawn,63629-5366
Hendrika Gligorijevic,0024-5840
Lari Gransden,51346-071
Averyl Insall,52343-061
Justino Wharlton,0944-2822
Mia Vasyatkin,0078-0408
Stanislaw Doud,49288-0481
Cathlene Smullen,63148-422
Eleanor Mablestone,0168-0005
Catha Weblin,65044-1061
Kylynn Watman,63739-514
Laryssa Tours,49230-212
Amalie Castilla,47469-120
Monte Gingel,58232-4024
Mayor Downage,35356-858
Cobbie Izzat,42549-606
Pat Aked,68472-122
Bradley Blyth,51293-607
Aland Cristofor,64376-809
Hannis Brakespear,0019-1333
Waylan Teacy,49288-0150
Melantha Kuhnke,53262-001
Barnaby Heinish,63629-3552
Stan Bynert,59779-129
Daron Piborn,0615-1393
Ramonda Brunn,55154-6977
Zondra Treweke,24623-001
Anson Eglese,61786-029
Micheil Krystof,15338-233
Mellisa Kynge,63739-529
Rayner Grestie,46672-099
Avrit Hallard,0573-1930
Rosalyn Cardenas,64720-189
Luisa Halliwell,12634-910
Julie Renowden,57520-0176
Edyth Kennaway,68462-394
Jordan Broadway,11673-878
Leonard Worgen,0363-0195
Cordy Darbon,13668-002
Riki Furby,57955-0321
Freedman Burney,10297-001
Daren Buggs,52584-369
Clair Kinnerk,0869-0434
Bunni Swinn,10096-0265
Herschel Pietruschka,51289-200
Bambi Allerton,69109-004
Godfrey Freke,61957-0322
Grannie Scullion,21695-874
Della Dewitt,49349-966
Hillary Bowcock,61601-1112
Ivory Gillard,51824-001
Sidoney Zylbermann,24275-0385
Hewett Rollitt,54973-3223
